AWSTATS DATA FILE 7.4 (build 20140726)
# If you remove this file, all statistics for date 201604 will be lost/reset.
# Last config file used to build this data file was /home/adamts/tmp/awstats/awstats.adamts.myweb.jce.ac.il.conf.

# Position (offset in bytes) in this file for beginning of each section for
# direct I/O access. If you made changes somewhere in this file, you should
# also remove completely the MAP section (AWStats will rewrite it at next
# update).
BEGIN_MAP 28
POS_GENERAL 2017                
POS_TIME 2688                
POS_VISITOR 5720                
POS_DAY 5908                
POS_DOMAIN 3182                
POS_LOGIN 3422                
POS_ROBOT 3577                
POS_WORMS 3709                
POS_EMAILSENDER 3840                
POS_EMAILRECEIVER 3983                
POS_SESSION 6009                
POS_SIDER 6178                
POS_FILETYPES 4118                
POS_DOWNLOADS 4246                
POS_OS 4294                
POS_BROWSER 4370                
POS_SCREENSIZE 4446                
POS_UNKNOWNREFERER 4520                
POS_UNKNOWNREFERERBROWSER 4607                
POS_ORIGIN 4689                
POS_SEREFERRALS 4822                
POS_PAGEREFS 4966                
POS_SEARCHWORDS 5114                
POS_KEYWORDS 5266                
POS_MISC 2352                
POS_ERRORS 5325                
POS_CLUSTER 3278                
POS_SIDER_404 5411                
END_MAP

# LastLine    = Date of last record processed - Last record line number in last log - Last record offset in last log - Last record signature value
# FirstTime   = Date of first visit for history file
# LastTime    = Date of last visit for history file
# LastUpdate  = Date of last update - Nb of parsed records - Nb of parsed old records - Nb of parsed new records - Nb of parsed corrupted - Nb of parsed dropped
# TotalVisits = Number of visits
# TotalUnique = Number of unique visitors
# MonthHostsKnown   = Number of hosts known
# MonthHostsUnKnown = Number of hosts unknown
BEGIN_GENERAL 8
LastLine 20160501203824 1 0 9680746069425
FirstTime 20160406175240
LastTime 20160407181243
LastUpdate 20160502150234 1 0 0 0 0
TotalVisits 3                   
TotalUnique 3                   
MonthHostsKnown 0                   
MonthHostsUnknown 3                   
END_GENERAL

# Misc ID - Pages - Hits - Bandwidth
BEGIN_MISC 10
RealPlayerSupport 0 0 0
JavascriptDisabled 0 0 0
TotalMisc 0 0 0
WindowsMediaPlayerSupport 0 0 0
PDFSupport 0 0 0
AddToFavourites 0 0 0
FlashSupport 0 0 0
DirectorSupport 0 0 0
QuickTimeSupport 0 0 0
JavaEnabled 0 0 0
END_MISC

# Hour - Pages - Hits - Bandwidth - Not viewed Pages - Not viewed Hits - Not viewed Bandwidth
BEGIN_TIME 24
0 0 0 0 0 0 0
1 0 0 0 0 0 0
2 0 0 0 0 0 0
3 0 0 0 0 0 0
4 9 9 1856 1 2 242
5 1 1 125 0 0 0
6 0 0 0 0 0 0
7 0 0 0 0 0 0
8 0 0 0 0 0 0
9 0 0 0 0 0 0
10 0 0 0 0 0 0
11 0 0 0 0 0 0
12 0 0 0 0 0 0
13 0 0 0 0 0 0
14 0 0 0 0 0 0
15 0 0 0 0 0 0
16 0 0 0 0 0 0
17 1 1 154 0 1 0
18 7 12 477791 1 2 242
19 0 0 0 0 0 0
20 0 0 0 0 0 0
21 0 0 0 0 0 0
22 0 0 0 0 0 0
23 0 0 0 0 0 0
END_TIME

# Domain - Pages - Hits - Bandwidth
# The 25 first Pages must be first (order not required for others)
BEGIN_DOMAIN 2
il 13 13 2705
zz 5 10 477221
END_DOMAIN

# Cluster ID - Pages - Hits - Bandwidth
BEGIN_CLUSTER 0
END_CLUSTER

# Login - Pages - Hits - Bandwidth - Last visit
# The 10 first Pages must be first (order not required for others)
BEGIN_LOGIN 0
END_LOGIN

# Robot ID - Hits - Bandwidth - Last visit - Hits on robots.txt
# The 25 first Hits must be first (order not required for others)
BEGIN_ROBOT 0
END_ROBOT

# Worm ID - Hits - Bandwidth - Last visit
# The 5 first Hits must be first (order not required for others)
BEGIN_WORMS 0
END_WORMS

# EMail - Hits - Bandwidth - Last visit
# The 20 first Hits must be first (order not required for others)
BEGIN_EMAILSENDER 0
END_EMAILSENDER

# EMail - Hits - Bandwidth - Last visit
# The 20 first hits must be first (order not required for others)
BEGIN_EMAILRECEIVER 0
END_EMAILRECEIVER

# Files type - Hits - Bandwidth - Bandwidth without compression - Bandwidth after compression
BEGIN_FILETYPES 4
php 4 504 0 0
html 14 8364 0 0
js 3 328072 0 0
css 2 142986 0 0
END_FILETYPES

# Downloads - Hits - Bandwidth
BEGIN_DOWNLOADS 0
END_DOWNLOADS

# OS ID - Hits
BEGIN_OS ID - Hits - Pages 1
win8 23 18
END_OS

# Browser ID - Hits - Pages
BEGIN_BROWSER 1
chrome49.0.2623.110 23 18
END_BROWSER

# Screen size - Hits
BEGIN_SCREENSIZE 0
END_SCREENSIZE

# Unknown referer OS - Last visit date
BEGIN_UNKNOWNREFERER 0
END_UNKNOWNREFERER

# Unknown referer Browser - Last visit date
BEGIN_UNKNOWNREFERERBROWSER 0
END_UNKNOWNREFERERBROWSER

# Origin - Pages - Hits 
BEGIN_ORIGIN 6
From0 12 12
From1 0 0
From2 0 0
From3 0 0
From4 6 11
From5 0 0
END_ORIGIN

# Search engine referers ID - Pages - Hits
BEGIN_SEREFERRALS 0
END_SEREFERRALS

# External page referers - Pages - Hits
# The 25 first Pages must be first (order not required for others)
BEGIN_PAGEREFS 0
END_PAGEREFS

# Search keyphrases - Number of search
# The 10 first number of search must be first (order not required for others)
BEGIN_SEARCHWORDS 0
END_SEARCHWORDS

# Search keywords - Number of search
# The 25 first number of search must be first (order not required for others)
BEGIN_KEYWORDS 0
END_KEYWORDS

# Errors - Hits - Bandwidth
BEGIN_ERRORS 1
301 2 484
END_ERRORS

# URL with 404 errors - Hits - Last URL referrer
BEGIN_SIDER_404 0
END_SIDER_404

# Host - Pages - Hits - Bandwidth - Last visit date - [Start date of last visit] - [Last page of last visit]
# [Start date of last visit] and [Last page of last visit] are saved only if session is not finished
# The 25 first Hits must be first (order not required for others)
BEGIN_VISITOR 3
80.246.133.240 10 10 1981 20160407050001
10.8.6.50 5 10 477221 20160406182749
80.246.130.132 3 3 724 20160407181243
END_VISITOR

# Date - Pages - Hits - Bandwidth - Visits
BEGIN_DAY 2
20160406 5 10 477221 1
20160407 13 13 2705 2
END_DAY

# Session range - Number of visits
BEGIN_SESSION 3
30s-2mn 1
15mn-30mn 1
30mn-1h 1
END_SESSION

# URL - Pages - Bandwidth - Entry - Exit
# The 25 first Pages must be first (order not required for others)
BEGIN_SIDER 7
/ex2/ 8 1401 2 0
/mvc/index.php 4 504 0 2
/mvc/ 2 954 1 0
/adam/basic/web/ 1 4227 0 1
/adam/basic/ 1 1083 0 0
/adam/ 1 322 0 0
/ 1 377 0 0
END_SIDER
